{
  "projectName": "SAP Business One — ERP-система для комплексного управления предприятием",
  "mainNav": {
    "Видео": "#video",
    "О SAP": "#about",
    "Выгоды": "#why",
    "Истории клиентов": "#story",
    "Контакты": "#contacts"
  }
}